…
tidy_albums <- lyrics %>% 
  filter(type == "Album") %>%                                     # filter to keep recent music
  select(lyric, type)  %>%
  unnest_tokens(output = word,input = lyric, token = "words") %>% # tokenize Album lyrics 
  group_by(type) %>%
  count(word) %>%                                                 # count occurrences of each word
  arrange(desc(n))                                                # sort words by decreasing order in frequency

tidy_albums

## # A tibble: 1,289 x 3
## # Groups:   type [1]
##    type  word      n
##    <chr> <chr> <int>
##  1 Album i       667
##  2 Album you     456
##  3 Album the     303
##  4 Album oh      292
##  5 Album a       226
##  6 Album me      224
##  7 Album to      221
##  8 Album it      206
##  9 Album know    205
## 10 Album i'm     168
## # … with 1,279 more rows

tidy_mixtapes <- lyrics %>% 
  filter(type == "Mixtape") %>%                                   # filter to keep older music 
  select(lyric, type)  %>%
  unnest_tokens(output = word,input = lyric, token = "words") %>% # tokenize Mixtapes lyrics
  group_by(type) %>%
  count(word) %>%                                                 # count occurrences of each word
  arrange(desc(n))                                                # sort words by decreasing order in frequency

tidy_mixtapes

## # A tibble: 917 x 3
## # Groups:   type [1]
##    type    word      n
##    <chr>   <chr> <int>
##  1 Mixtape you     379
##  2 Mixtape i       272
##  3 Mixtape the     194
##  4 Mixtape it      143
##  5 Mixtape me      137
##  6 Mixtape a       107
##  7 Mixtape i'm     100
##  8 Mixtape baby     95
##  9 Mixtape girl     91
## 10 Mixtape oh       88
## # … with 907 more rows

This representation of the lyrics seems to be a little difficult to analyze since both albums and mixtapes have many occurrences of very similar common words such as i, you, the, etc. To resolve this issue, we can utilize the package tidytext which provides a list of English stop words, words that do not add much meaning to a sentence such as the, a, and, or, is, etc. Then, using anti_join, we can remove all stop words from both datasets of words mixtapes and albums (ie. tidy_mixtapes and tidy_albums ).

data(stop_words)      # load stop words from tidytext

tidy_mixtapes %>% 
  anti_join(stop_words, by = c("word" = "word")) # remove stop words from mixtapes lyrics

## # A tibble: 649 x 3
## # Groups:   type [1]
##    type    word         n
##    <chr>   <chr>    <int>
##  1 Mixtape baby        95
##  2 Mixtape girl        91
##  3 Mixtape la          80
##  4 Mixtape yeah        79
##  5 Mixtape ooh         78
##  6 Mixtape love        56
##  7 Mixtape thursday    38
##  8 Mixtape woah        38
##  9 Mixtape bring       34
## 10 Mixtape money       28
## # … with 639 more rows

tidy_albums %>% 
  anti_join(stop_words, by = c("word" = "word")) # remove stop words from album lyrics

## # A tibble: 990 x 3
## # Groups:   type [1]
##    type  word       n
##    <chr> <chr>  <int>
##  1 Album yeah     114
##  2 Album hey      106
##  3 Album feel      96
##  4 Album baby      73
##  5 Album love      73
##  6 Album na        69
##  7 Album girl      68
##  8 Album coming    63
##  9 Album life      62
## 10 Album ooh       48
## # … with 980 more rows
…
nrc from Saif Mohammad and Peter Turney at the National Research Council of Canada

bing from Bing Liu and collaborators

AFINN from Finn Årup Nielsen

The idea behind these lexicons is the assignment of single words to a score, to measure sentiment. The lexicons are made up of a large number of English words that are generally assigned into a positive or negative category. Some lexicons provide word associations with emotions such as anger, sadness, joy, etc.

The NRC Lexicon

The NRC lexicon was developed by Saif Mohammad and Peter Turney at the National Research Council of Canada where I interned last summer! The lexicon provides a corpus of 13,901 words and an associated sentiment to each. It splits words into various associated sentiments. For example, take the word abandon. The NRC lexicon associates the following sentiments to the word abandon: fear, negative, sadness. Although most words are assigned a negative or positive sentiment, emotional sentiments such as fear, anger, trust, and sadness, are heavily present in the NRC lexicon as well!

tidytext::get_sentiments("nrc")

## # A tibble: 13,901 x 2
##    word        sentiment
##    <chr>       <chr>    
##  1 abacus      trust    
##  2 abandon     fear     
##  3 abandon     negative 
##  4 abandon     sadness  
##  5 abandoned   anger    
##  6 abandoned   fear     
##  7 abandoned   negative 
##  8 abandoned   sadness  
##  9 abandonment anger    
## 10 abandonment fear     
## # … with 13,891 more rows
…
Graphically speaking, it appears that The Weeknd’s music got more negative and sad over time, with albums showing higher occurrences of negatively associated sentiments.

The Bing Lexicon

The second lexicon from tidytext is the bing lexicon. The bing lexicon, from Bing Liu and collaborators, categorizes words in binary categories of positive and negative.

tidytext::get_sentiments("bing")

## # A tibble: 6,786 x 2
##    word        sentiment
##    <chr>       <chr>    
##  1 2-faces     negative 
##  2 abnormal    negative 
##  3 abolish     negative 
##  4 abominable  negative 
##  5 abominably  negative 
##  6 abominate   negative 
##  7 abomination negative 
##  8 abort       negative 
##  9 aborted     negative 
## 10 aborts      negative 
## # … with 6,776 more rows
…
Applying the bing lexicon to the album data and visualizing the proportions of sentiments found in The Weeknd’s music, it becomes more clear to see the overall difference in sentiments across the albums. His latest music, the albums After Hours and Starboy appear to contain more negative lyrics than the earlier released mixtapes from 2011.

The AFINN Lexicon

The third popular lexicon is the AFINN lexicon, developed by Finn Årup Nielsen between 2009 and 2011. The AFINN lexicon assigns words with a score between -5 and 5, with negative scores indicating negative sentiment and positive scores indicating positive sentiment. No words are assigned a score of 0. The lexicon has 2,477 words, some of which overlap with the bing lexicon, and each word has a value for how positive or negative the word might be.

tidytext::get_sentiments("afinn")

## # A tibble: 2,477 x 2
##    word       value
##    <chr>      <dbl>
##  1 abandon       -2
##  2 abandoned     -2
##  3 abandons      -2
##  4 abducted      -2
##  5 abduction     -2
##  6 abductions    -2
##  7 abhor         -3
##  8 abhorred      -3
##  9 abhorrent     -3
## 10 abhors        -3
## # … with 2,467 more rows
…
